%YAML 1.1
%TAG !u! tag:unity3d.com,2011:
--- !u!1 &8844483136497282845
GameObject:
  m_ObjectHideFlags: 0
  m_CorrespondingSourceObject: {fileID: 0}
  m_PrefabInstance: {fileID: 0}
  m_PrefabAsset: {fileID: 0}
  serializedVersion: 6
  m_Component:
  - component: {fileID: 8844483136497282846}
  - component: {fileID: 8844483136497282847}
  m_Layer: 0
  m_Name: RotatingEnemy
  m_TagString: Untagged
  m_Icon: {fileID: 0}
  m_NavMeshLayer: 0
  m_StaticEditorFlags: 0
  m_IsActive: 1
--- !u!4 &8844483136497282846
Transform:
  m_ObjectHideFlags: 0
  m_CorrespondingSourceObject: {fileID: 0}
  m_PrefabInstance: {fileID: 0}
  m_PrefabAsset: {fileID: 0}
  m_GameObject: {fileID: 8844483136497282845}
  m_LocalRotation: {x: 0, y: 0, z: 0, w: 1}
  m_LocalPosition: {x: 0, y: 0, z: 0}
  m_LocalScale: {x: 1, y: 1, z: 1}
  m_ConstrainProportionsScale: 0
  m_Children:
  - {fileID: 3285951396381400446}
  m_Father: {fileID: 0}
  m_RootOrder: 0
  m_LocalEulerAnglesHint: {x: 0, y: 0, z: 0}
--- !u!114 &8844483136497282847
MonoBehaviour:
  m_ObjectHideFlags: 0
  m_CorrespondingSourceObject: {fileID: 0}
  m_PrefabInstance: {fileID: 0}
  m_PrefabAsset: {fileID: 0}
  m_GameObject: {fileID: 8844483136497282845}
  m_Enabled: 1
  m_EditorHideFlags: 0
  m_Script: {fileID: 11500000, guid: e1b49d0a6e795984ca82be0715efb63c, type: 3}
  m_Name: 
  m_EditorClassIdentifier: 
  m_previewInEditor: 0
  radius: 2
  rotateSpeed: 1
  pivotOverrideTrns: {fileID: 0}
  enemy: {fileID: 3285951396381400444}
--- !u!1001 &8031821949663091635
PrefabInstance:
  m_ObjectHideFlags: 0
  serializedVersion: 2
  m_Modification:
    m_TransformParent: {fileID: 8844483136497282846}
    m_Modifications:
    - target: {fileID: 1570394040432737522, guid: 22166548632164f49a0bdb5ee9c25d86, type: 3}
      propertyPath: m_Enabled
      value: 0
      objectReference: {fileID: 0}
    - target: {fileID: 4822450169202706124, guid: 22166548632164f49a0bdb5ee9c25d86, type: 3}
      propertyPath: m_Name
      value: Enemy
      objectReference: {fileID: 0}
    - target: {fileID: 4822450169202706125, guid: 22166548632164f49a0bdb5ee9c25d86, type: 3}
      propertyPath: m_RootOrder
      value: 0
      objectReference: {fileID: 0}
    - target: {fileID: 4822450169202706125, guid: 22166548632164f49a0bdb5ee9c25d86, type: 3}
      propertyPath: m_LocalPosition.x
      value: 1.9888363
      objectReference: {fileID: 0}
    - target: {fileID: 4822450169202706125, guid: 22166548632164f49a0bdb5ee9c25d86, type: 3}
      propertyPath: m_LocalPosition.y
      value: -0.21102138
      objectReference: {fileID: 0}
    - target: {fileID: 4822450169202706125, guid: 22166548632164f49a0bdb5ee9c25d86, type: 3}
      propertyPath: m_LocalPosition.z
      value: 0
      objectReference: {fileID: 0}
    - target: {fileID: 4822450169202706125, guid: 22166548632164f49a0bdb5ee9c25d86, type: 3}
      propertyPath: m_LocalRotation.w
      value: 1
      objectReference: {fileID: 0}
    - target: {fileID: 4822450169202706125, guid: 22166548632164f49a0bdb5ee9c25d86, type: 3}
      propertyPath: m_LocalRotation.x
      value: -0
      objectReference: {fileID: 0}
    - target: {fileID: 4822450169202706125, guid: 22166548632164f49a0bdb5ee9c25d86, type: 3}
      propertyPath: m_LocalRotation.y
      value: -0
      objectReference: {fileID: 0}
    - target: {fileID: 4822450169202706125, guid: 22166548632164f49a0bdb5ee9c25d86, type: 3}
      propertyPath: m_LocalRotation.z
      value: -0
      objectReference: {fileID: 0}
    - target: {fileID: 4822450169202706125, guid: 22166548632164f49a0bdb5ee9c25d86, type: 3}
      propertyPath: m_LocalEulerAnglesHint.x
      value: 0
      objectReference: {fileID: 0}
    - target: {fileID: 4822450169202706125, guid: 22166548632164f49a0bdb5ee9c25d86, type: 3}
      propertyPath: m_LocalEulerAnglesHint.y
      value: 0
      objectReference: {fileID: 0}
    - target: {fileID: 4822450169202706125, guid: 22166548632164f49a0bdb5ee9c25d86, type: 3}
      propertyPath: m_LocalEulerAnglesHint.z
      value: 0
      objectReference: {fileID: 0}
    m_RemovedComponents: []
  m_SourcePrefab: {fileID: 100100000, guid: 22166548632164f49a0bdb5ee9c25d86, type: 3}
--- !u!114 &3285951396381400444 stripped
MonoBehaviour:
  m_CorrespondingSourceObject: {fileID: 4822450169202706127, guid: 22166548632164f49a0bdb5ee9c25d86, type: 3}
  m_PrefabInstance: {fileID: 8031821949663091635}
  m_PrefabAsset: {fileID: 0}
  m_GameObject: {fileID: 0}
  m_Enabled: 1
  m_EditorHideFlags: 0
  m_Script: {fileID: 11500000, guid: 1c78dbfe25be3eb4aa3b861c91ab5f15, type: 3}
  m_Name: 
  m_EditorClassIdentifier: 
--- !u!4 &3285951396381400446 stripped
Transform:
  m_CorrespondingSourceObject: {fileID: 4822450169202706125, guid: 22166548632164f49a0bdb5ee9c25d86, type: 3}
  m_PrefabInstance: {fileID: 8031821949663091635}
  m_PrefabAsset: {fileID: 0}
